{
    "run_silent":false,
    "component_number": 2,
    "boxcar_smoothing":false,
    "boxcar_size":6,
    "x_minimum":2500,
    "x_maximum":5000,
    "run_silent":false,
    "xdif":3,
    "splinecorrect":false,
    "check_badspecs":true,
    "all_vis":true,
    "zero_curves":false
}

